[{"page": 1, "pages": 66, "per_page": 1, "total": 66, "sourceid": "2", "lastupdated": "2026-04-08"}, [{"indicator": {"id": "NY.GDP.PCAP.CD", "value": "GDP per capita (current US$)"}, "country": {"id": "GB", "value": "United Kingdom"}, "countryiso3code": "GBR", "date": "2025", "value": null, "unit": "", "obs_status": "", "decimal": 1}]]